Version=2

[Info]
Lives = 5
Name = Bowl Cut

[Blocks]
60.0,-10.0,3
40.0,0.0,3
100.0,0.0,3
-130.0,0.0,3
-170.0,-10.0,3
-190.0,0.0,3
20.0,-120.0,3
30.0,-130.0,3
40.0,-140.0,3
60.0,-140.0,3
100.0,-140.0,3
140.0,-130.0,3
-110.0,-120.0,3
-120.0,-130.0,3
-130.0,-140.0,3
-180.0,-140.0,3
-220.0,-130.0,3
-200.0,-80.0,4
-170.0,-90.0,4
40.0,-70.0,4
70.0,-80.0,4
80.0,-90.0,4
-170.0,-60.0,4
60.0,-60.0,4
-140.0,-90.0,5
110.0,-90.0,5
-220.0,-90.0,3
-210.0,-90.0,4
30.0,-110.0,4
40.0,-120.0,4
70.0,-130.0,4
90.0,-120.0,4
110.0,-110.0,4
130.0,-100.0,4
120.0,-80.0,4
90.0,-70.0,4
110.0,-50.0,4
90.0,-30.0,4
50.0,-30.0,4
-120.0,-100.0,4
-130.0,-120.0,4
-160.0,-130.0,4
-180.0,-120.0,4
-200.0,-110.0,4
-150.0,-80.0,4
-130.0,-70.0,4
-140.0,-30.0,4
-190.0,-30.0,4
-200.0,-50.0,4
130.0,-100.0,5
-120.0,-100.0,5
-60.0,-270.0,0
-60.0,-240.0,0
0.0,-270.0,0
0.0,-240.0,0
60.0,-270.0,0
60.0,-240.0,0
120.0,-260.0,0
120.0,-240.0,0
-120.0,-260.0,0
-120.0,-240.0,0
-180.0,-230.0,0
180.0,-230.0,0
220.0,-180.0,0
230.0,-140.0,0
240.0,-100.0,0
250.0,-60.0,0
240.0,-140.0,0
260.0,-10.0,0
-200.0,-210.0,0
-230.0,-180.0,0
-270.0,-130.0,0
-270.0,-100.0,0
-270.0,-50.0,0
-280.0,-10.0,0
-260.0,30.0,0
-210.0,70.0,3
-200.0,110.0,3
-180.0,130.0,3
-160.0,160.0,3
-140.0,180.0,3
-110.0,200.0,3
-80.0,220.0,3
-40.0,240.0,3
10.0,220.0,3
40.0,210.0,3
70.0,200.0,3
90.0,180.0,3
120.0,160.0,3
140.0,140.0,3
160.0,120.0,3
180.0,100.0,3
200.0,80.0,3
230.0,40.0,3
-40.0,80.0,1
