Version=2

[Info]
Lives=3
Name=Whoosh

[Blocks]
-270.0,-90.0,5
-270.0,-30.0,5
-270.0,30.0,5
-270.0,90.0,5
-210.0,-150.0,5
-210.0,-90.0,5
-210.0,-30.0,5
-210.0,30.0,5
-210.0,90.0,5
-210.0,150.0,5
-150.0,-210.0,5
-150.0,-150.0,2
-150.0,-90.0,5
-150.0,-30.0,5
-150.0,30.0,5
-150.0,90.0,5
-150.0,150.0,2
-150.0,210.0,5
-90.0,-270.0,5
-90.0,-210.0,5
-90.0,-150.0,5
-90.0,-90.0,4
-90.0,-30.0,4
-90.0,30.0,4
-90.0,90.0,4
-90.0,150.0,5
-90.0,210.0,5
-90.0,270.0,5
-30.0,-270.0,5
-30.0,-210.0,5
-30.0,-150.0,5
-30.0,-90.0,4
-30.0,-30.0,1
-30.0,30.0,1
-30.0,90.0,4
-30.0,150.0,5
-30.0,210.0,5
-30.0,270.0,5
30.0,-270.0,5
30.0,-210.0,5
30.0,-150.0,5
30.0,-90.0,4
30.0,-30.0,1
30.0,30.0,1
30.0,90.0,4
30.0,150.0,5
30.0,210.0,5
30.0,270.0,5
90.0,-270.0,5
90.0,-210.0,5
90.0,-150.0,5
90.0,-90.0,4
90.0,-30.0,4
90.0,30.0,4
90.0,90.0,4
90.0,150.0,5
90.0,210.0,5
90.0,270.0,5
150.0,-210.0,5
150.0,-150.0,2
150.0,-90.0,5
150.0,-30.0,5
150.0,30.0,5
150.0,90.0,5
150.0,150.0,2
150.0,210.0,5
210.0,-150.0,5
210.0,-90.0,5
210.0,-30.0,5
210.0,30.0,5
210.0,90.0,5
210.0,150.0,5
270.0,-90.0,5
270.0,-30.0,5
270.0,30.0,5
270.0,90.0,5
